{
  "project_info": {
    "project_number": "851171119042",
    "project_id": "newyearresolution2021",
    "storage_bucket": "newyearresolution2021.appspot.com"
  },
  "client": [
    {
      "client_info": {
        "mobilesdk_app_id": "1:851171119042:android:f36e5f979ed5a72af2105b",
        "android_client_info": {
          "package_name": "com.newyearresolutionscalendar2021"
        }
      },
      "oauth_client": [
        {
          "client_id": "851171119042-fav01h1pb1acig7r07pvjembhebudf7m.apps.googleusercontent.com",
          "client_type": 1,
          "android_info": {
            "package_name": "com.newyearresolutionscalendar2021",
            "certificate_hash": "46a1b2e8fc762a8f1af4f493ffbd7ab1807c3f7d"
          }
        },
        {
          "client_id": "851171119042-qujj010nat9lgc2bc51uv8mf0f455s36.apps.googleusercontent.com",
          "client_type": 3
        }
      ],
      "api_key": [
        {
          "current_key": "AIzaSyBOnPp_kA-ML8aELf_hlhqkhbte3A0RatI"
        }
      ],
      "services": {
        "appinvite_service": {
          "other_platform_oauth_client": [
            {
              "client_id": "851171119042-qujj010nat9lgc2bc51uv8mf0f455s36.apps.googleusercontent.com",
              "client_type": 3
            }
          ]
        }
      }
    }
  ],
  "configuration_version": "1"
}